17

C          1.35871        0.13630       -1.15254
C          0.37494       -0.47382       -0.14987
C         -0.56461        0.64210        0.36135
H         -0.97396        1.20864       -0.48349
O          0.15885        1.57709        1.17157
H          0.47105        1.11005        1.96669
C         -1.72073        0.11221        1.20685
H         -2.39825       -0.51743        0.62296
H         -2.30040        0.94385        1.62264
H         -1.34845       -0.46761        2.05876
N         -0.35627       -1.58448       -0.81257
O          1.18158        0.24299       -2.35778
O          2.51716        0.53410       -0.59119
H          0.95333       -0.89902        0.67883
H          0.32699       -2.26609       -1.14747
H         -0.77940       -1.21084       -1.66790
H          3.02336        0.92564       -1.33332
