16

H          1.41034       -0.63030        0.08884
C          0.31466       -0.61506        0.09038
C         -0.14610       -0.10723       -1.28228
O         -0.51669        1.03205       -1.53148
O         -0.09511       -1.04832       -2.24736
H         -0.38133       -0.59688       -3.06963
C         -0.22248        0.30891        1.18052
C          0.65114        1.52947        1.32546
H         -1.25910        0.62250        1.00889
N         -0.18409       -1.99581        0.29978
H          0.11704       -2.55749       -0.50267
H         -1.20353       -2.00713        0.26251
O          0.44814        2.48119        0.39033
O          1.48432        1.65934        2.21023
H         -0.21270       -0.19596        2.15556
H         -0.18521        2.23981       -0.32611
