22

C          2.42332        0.14434       -0.13422
C          1.14127       -0.70018       -0.10040
C         -0.11131        0.21310       -0.17047
C         -1.37424       -0.61213       -0.50262
C         -2.57981        0.24446       -0.86778
O          3.09356        0.49669        0.82510
O          2.76124        0.53518       -1.38056
N          1.16884       -1.60058        1.07092
H          1.17248       -1.34607       -0.98676
H          0.04610        0.92517       -0.99253
C         -0.30726        1.04285        1.10700
H         -1.64499       -1.25857        0.34013
H         -1.16073       -1.27135       -1.35299
H         -2.34422        0.92271       -1.69390
H         -2.92554        0.83876       -0.01735
H         -3.41114       -0.39477       -1.18259
H          3.58829        1.04388       -1.24643
H          0.23920       -1.96757        1.25713
H          1.44136       -1.05715        1.89318
H         -1.09859        1.78723        0.97446
H          0.60203        1.59233        1.36940
H         -0.58253        0.41290        1.95924
