23

N          1.05006       -2.08494       -0.12115
C          1.48238       -0.74644       -0.58810
C          0.98571        0.39745        0.31314
C         -0.51735        0.55327        0.32186
C         -1.18205        1.08904       -0.78972
C         -2.57168        1.21809       -0.78800
C         -3.30931        0.81389        0.32292
C         -2.65828        0.28231        1.43433
C         -1.26858        0.15286        1.43544
C          3.00909       -0.69051       -0.61117
O          3.49881       -0.07126       -1.70481
O          3.76499       -1.10175        0.25696
H          0.04044       -2.07020        0.02641
H          1.47140       -2.26161        0.79265
H          1.11541       -0.62497       -1.61379
H          1.42718        1.34930       -0.01290
H          1.34965        0.25297        1.33986
H         -0.62214        1.41035       -1.66541
H         -3.07922        1.63441       -1.65438
H         -4.39147        0.91469        0.32300
H         -3.23377       -0.03096        2.30167
H         -0.77773       -0.26352        2.31242
H          4.47061       -0.13841       -1.59476
