17

H         -0.03929       -1.09746        1.59943
C         -0.11436       -0.65017        0.60251
C         -1.20188       -1.39676       -0.17086
O         -1.09739       -1.87528       -1.29086
O         -2.36296       -1.49117        0.50779
H         -2.94796       -1.99668       -0.09496
N          1.19726       -0.78841       -0.09464
C          1.72295        0.56529       -0.28806
H          2.34114        0.83937        0.57446
H          2.34489        0.63240       -1.18563
C          0.49921        1.45028       -0.37064
H          0.04199        1.38372       -1.36533
H          0.72469        2.50014       -0.16295
C         -0.41950        0.84197        0.67017
H         -1.46574        1.09740        0.47583
H         -0.15091        1.22889        1.66090
H          1.00993       -1.20347       -1.01503
