24

N          1.37215       -2.13825        0.52832
C          1.48657       -1.05939       -0.49072
C          2.89755       -1.07292       -1.08710
O          3.85340       -1.71198       -0.67251
O          3.01962       -0.30160       -2.18545
C          1.20007        0.32423        0.11672
H          1.68379        0.42482        1.09825
H          1.65356        1.11595       -0.49439
C         -0.27654        0.61800        0.25502
C         -0.94678        1.35814       -0.72973
H         -0.41161        1.73570       -1.59790
C         -2.31229        1.62054       -0.60858
H         -2.82924        2.19530       -1.37141
C         -3.01109        1.14056        0.49193
C         -2.36703        0.39914        1.47652
H         -2.90509        0.01388        2.33635
C         -1.00037        0.13780        1.35553
H         -0.50116       -0.45416        2.12015
O         -4.34406        1.41787        0.56946
H         -4.69397        1.01137        1.37894
H          0.78633       -1.29305       -1.30156
H          3.95148       -0.42555       -2.46491
H          2.14267       -2.02732        1.19212
H          1.56786       -3.02904        0.06747
